Regression_Ideas
…
## See spec(...) for full column specifications.

tail(All_Season_Stats,25)

## # A tibble: 25 x 104
##    Player         Pos     Age Tm     G_18 GS_18 MP_18 FG_18 FGA_18 `3P_18`
##    <chr>          <chr> <int> <chr> <int> <int> <int> <int>  <int>   <int>
##  1 Vander Blue    SG       25 LAL       5     0    45     1      5       0
##  2 Victor Oladipo SG       25 IND      75    75  2552   640   1342     161
##  3 Vince Carter   SF       41 SAC      58     5  1026   114    283      57
##  4 Vince Hunter   PF       23 MEM       4     0     7     3      5       0
##  5 Wade Baldwin   PG       21 POR       7     0    80    14     21       4
##  6 Walt Lemon Jr. PG       25 NOP       5     0    35     7     16       1
##  7 Wayne Ellingt SG       30 MIA      77     2  2041   285    700     227
##  8 Wayne Selden   SG       23 MEM      35     9   692   116    269      49
##  9 Wesley Iwundu  SF       23 ORL      62    12  1020    93    218       9
## 10 Wesley Johnson SF       30 LAC      74    40  1486   150    368      60
## # ... with 15 more rows, and 94 more variables: `3PA_18` <int>,
## #   `2P_18` <int>, `2PA_18` <int>, FT_18 <int>, FTA_18 <int>,
## #   ORB_18 <int>, DRB_18 <int>, TRB_18 <int>, AST_18 <int>, STL_18 <int>,
## #   BLK_18 <int>, TOV_18 <int>, PF_18 <int>, `PS/G_18` <int>, G_17 <int>,
## #   GS_17 <int>, MP_17 <int>, FG_17 <int>, FGA_17 <int>, `3P_17` <int>,
## #   `3PA_17` <int>, `2P_17` <int>, `2PA_17` <int>, FT_17 <int>,
## #   FTA_17 <int>, ORB_17 <int>, DRB_17 <int>, TRB_17 <int>, AST_17 <int>,
## #   STL_17 <int>, BLK_17 <int>, TOV_17 <int>, PF_17 <int>,
## #   `PS/G_17` <int>, G_16 <int>, GS_16 <int>, MP_16 <int>, FG_16 <int>,
…
